﻿{
	"vernadskiy": {
		"name": "Памятник В. И. Вернадскому",
		"latitude": 44.936506,
		"longitude": 34.134029,
		"requiredDistance": 20,
		"visibleDistance": 200,
		"description": "Памятник В. И. Вернадскому открыт в рамках мероприятий, приуроченных 150-летию со дня рождения ученого и 95-летию создания Таврического Национального Университета.",
		"previewImage": "vernadskiy/preview",
		"articleBlocks": [
			{
				"type": "text_path",
				"content": "vernadskiy/text"
			},
			{
				"type": "image_path",
				"content": "vernadskiy/article"
			}
		]
	},
	"bagrov": {
		"name": "«От студента - до ректора...»",
		"latitude": 44.936388,
		"longitude": 34.134343,
		"requiredDistance": 20,
		"visibleDistance": 200,
		"description": "Багров Николай Васильевич – географ, педагог, государственный деятель. Экспозиция открыта 26 октября 2016 года в День памяти Н. В. Багрова.",
		"previewImage": "bagrov/preview",
		"articleBlocks": [
			{
				"type": "text_path",
				"content": "bagrov/text"
			},
			{
				"type": "image_path",
				"content": "bagrov/article"
			}
		]
	},
	"rozariy": {
		"name": "Розарий",
		"latitude": 44.943186,
		"longitude": 34.130436,
		"requiredDistance": 20,
		"visibleDistance": 200,
		"description": "Экспозиция роз занимает площадь 0,8 га и по примеру лучших мировых розариев сочетает элементы регулярной и свободной планировки.",
		"previewImage": "rozariy/preview",
		"articleBlocks": [
			{
				"type": "text_path",
				"content": "rozariy/text"
			},
			{
				"type": "image_path",
				"content": "rozariy/article"
			}
		]
	},
	"kedrovo-sakurovaya_alleya": {
		"name": "Кедрово-сакуровая аллея",
		"latitude": 44.939831,
		"longitude": 34.130851,
		"requiredDistance": 20,
		"visibleDistance": 200,
		"description": "Интересным решением при создании главной аллеи дендрария стало чередование растений двух абсолютно непохожих древесных пород – кедра ливанского и красивоцветущей вишни пильчатой (сакуры)",
		"previewImage": "kedrovo-sakurovaya_alleya/preview",
		"articleBlocks": [
			{
				"type": "text_path",
				"content": "kedrovo-sakurovaya_alleya/text"
			},
			{
				"type": "image_path",
				"content": "kedrovo-sakurovaya_alleya/article"
			}
		]
	},
	"vodoemy_dendrariya": {
		"name": "Водоемы дендрария",
		"latitude": 44.939304,
		"longitude": 34.132469,
		"requiredDistance": 20,
		"visibleDistance": 200,
		"description": "Искусственный микрорельеф обеспечивает естественный перепад воды, в результате чего образуются водопады. Эта часть сада решена в пейзажном стиле, поэтому форма водного зеркала имеет естественный абрис.",
		"previewImage": "vodoemy_dendrariya/preview",
		"articleBlocks": [
			{
				"type": "text_path",
				"content": "vodoemy_dendrariya/text"
			},
			{
				"type": "image_path",
				"content": "vodoemy_dendrariya/article"
			}
		]
	},
	"siringariy": {
		"name": "Сирингарий",
		"latitude": 44.940546,
		"longitude": 34.132788,
		"requiredDistance": 20,
		"visibleDistance": 200,
		"description": "Сирингарий служит не только прекрасным местом отдыха, но и выполняет функцию главной обзорной площадки, откуда открывается вид по четырем основным направлениям.",
		"previewImage": "siringariy/preview",
		"articleBlocks": [
			{
				"type": "image_path",
				"content": "siringariy/article1"
			},
			{
				"type": "text_path",
				"content": "siringariy/text"
			},
			{
				"type": "image_path",
				"content": "siringariy/article2"
			}
		]
	},
	"iridariy": {
		"name": "Иридарий",
		"latitude": 44.943331,
		"longitude": 34.128319,
		"requiredDistance": 20,
		"visibleDistance": 200,
		"description": "Основная часть экспозиции состоит из семи линейно расположенных клумб, окруженных прогулочной дорожкой. Каждая из клумб оформлена индивидуально и имеет рисунок.",
		"previewImage": "iridariy/preview",
		"articleBlocks": [
			{
				"type": "image_path",
				"content": "iridariy/article1"
			},
			{
				"type": "text_path",
				"content": "iridariy/text"
			},
			{
				"type": "image_path",
				"content": "iridariy/article2"
			}
		]
	},
	"stolovaya": {
		"name": "Столовая КФУ",
		"latitude": 44.936528,
		"longitude": 34.135787,
		"requiredDistance": 20,
		"visibleDistance": 200,
		"description": "Столовая КФУ им. В.И. Вернадского работает под руководством профессионального оператора, занимающегося организацией столовых и буфетов на предприятиях и в образовательных учреждениях — «Таврида Кейтеринг».",
		"previewImage": "stolovaya/preview",
		"articleBlocks": [
			{
				"type": "text_path",
				"content": "stolovaya/text"
			},
			{
				"type": "image_path",
				"content": "stolovaya/article"
			}
		]
	}
}